


Expected: 5204730000001177	12/25		$37,00	''	''	Decline - Invalid Cardnum	14
SETTLEMENTDATE 	2021-02-17
RESULT 	SUCCESS
TIMEOFLASTUPDATE 	2021-02-17T15:39:44.373Z
GATEWAYCODE 	APPROVED
RECEIPT 	104815032693
TRANID 	761
CARDISSUER 	MASTERCARD - MEMBER TEST FACILITY
ORDERSTATUS 	CAPTURED
REFERENCE 	te54-761
ORDERREF 	E678B5C3-F7D3-5C5D-7F0EF9F525D44D60
AMOUNT 	37.00
ORDERID 	te54
BATCH 	20210217
CURRENCY 	USD
ACQUIRERCODE 	00
TIMEOFRECORD 	2021-02-17T15:39:42.182Z
TRANTYPE 	PAYMENT
MID 	10120002 


Expected: 5457210001000092	12/25		$38,00	''	''	Decline - Insufficient Funds	51
TRANID 	762
CURRENCY 	USD
REFERENCE 	te55-762
ORDERID 	te55
ACQUIRERCODE 	51
ORDERREF 	E68E6C55-A87B-0DE7-CDA5E7AADA7339D4
AMOUNT 	38.00
TIMEOFLASTUPDATE 	2021-02-17T15:42:07.359Z
SETTLEMENTDATE 	2021-02-17
TIMEOFRECORD 	2021-02-17T15:42:05.532Z
ORDERSTATUS 	FAILED
RECEIPT 	104815033763
CARDISSUER 	CAPITAL ONE BANK (CANADA BRANCH)
GATEWAYCODE 	INSUFFICIENT_FUNDS
RESULT 	FAILURE
BATCH 	20210217
MID 	10120002
TRANTYPE 	PAYMENT 

works as expected


Expected: 5204730000002514	12/25	251	$56,00	''	''	Decline - Do not honor	05	CVC2 Unmatched
Actual response:
ORDERID 	te10
CURRENCY 	USD
TIMEOFLASTUPDATE 	2021-02-17T13:17:44.827Z
ACQUIRERCODE 	05
RECEIPT 	104813025363
SETTLEMENTDATE 	2021-02-17
RESULT 	FAILURE
AMOUNT 	56.00
ORDERREF 	E164C265-A5C6-CCC4-490C616BC7718DAA
TIMEOFRECORD 	2021-02-17T13:17:43.115Z
MID 	10120002
BATCH 	20210217
GATEWAYCODE 	DECLINED
ORDERSTATUS 	FAILED
CARDISSUER 	MASTERCARD - MEMBER TEST FACILITY
TRANID 	752
TRANTYPE 	PAYMENT 

Expected: 5204730000001102	12/25	110	$77,00	''	''	Decline - Refer to Issuer	01	CVC2 Matched
Actual response:
ORDERREF 	E18146A7-DAB3-8324-1FBA448D59266367
SETTLEMENTDATE 	2021-02-17
TIMEOFRECORD 	2021-02-17T13:20:50.112Z
RECEIPT 	104813026373
RESULT 	SUCCESS
AMOUNT 	77.00
BATCH 	20210217
TRANID 	753
CURRENCY 	USD
ORDERID 	te11
TIMEOFLASTUPDATE 	2021-02-17T13:20:51.919Z
GATEWAYCODE 	APPROVED
MID 	10120002
ORDERSTATUS 	CAPTURED
CARDISSUER 	MASTERCARD - MEMBER TEST FACILITY
TRANTYPE 	PAYMENT
ACQUIRERCODE 	00
REFERENCE 	te11-753 

5457210001000100	12/25		$104,00	''	''	Decline - Expired Card	54
works as expected

Expected: 5457210001000357	12/25	324	$98,00	''	''	Decline - Do not honor	05	CVC2 Unmatched
Actual response:
RECEIPT 	104814028483
CURRENCY 	USD
RESULT 	FAILURE
CARDISSUER 	CAPITAL ONE BANK (CANADA BRANCH)
SETTLEMENTDATE 	2021-02-17
ACQUIRERCODE 	05
AMOUNT 	98.00
TRANID 	756
TIMEOFRECORD 	2021-02-17T14:12:35.647Z
TIMEOFLASTUPDATE 	2021-02-17T14:12:37.463Z
MID 	10120002
TRANTYPE 	PAYMENT
REFERENCE 	te13-756
ORDERREF 	E35B2734-EFB1-F6AE-4C0C9DC9493FC0F1
GATEWAYCODE 	DECLINED
BATCH 	20210217
ORDERID 	te13
ORDERSTATUS 	FAILED 

5457210001000092	12/25		$103,00	''	''	Decline - Insufficient Funds	51
works as expected

Expected: 5204730000001102	12/25	110	$57,00	''	''	Decline - Refer to Issuer	01	CVC2 Matched
Actual response:
TRANTYPE 	PAYMENT
CARDISSUER 	CAPITAL ONE BANK (CANADA BRANCH)
REFERENCE 	te52-759
ORDERREF 	E389ED62-FCD7-79FE-E9E150349A18E880
MID 	10120002
RESULT 	FAILURE
ORDERSTATUS 	FAILED
GATEWAYCODE 	INSUFFICIENT_FUNDS
SETTLEMENTDATE 	2021-02-17
TRANID 	759
CURRENCY 	USD
AMOUNT 	57.00
ACQUIRERCODE 	51
TIMEOFLASTUPDATE 	2021-02-17T14:17:42.627Z
BATCH 	20210217
TIMEOFRECORD 	2021-02-17T14:17:40.883Z
ORDERID 	te52
RECEIPT 	104814030583 

Expected: 5204730000001003	12/25		$51,00	''	''	Void	00
Actual response:
ORDERREF 	E658ADAB-DFAE-5C4F-68C3BEB653EF7CBE
SETTLEMENTDATE 	2021-02-17
CURRENCY 	USD
CARDISSUER 	MASTERCARD - MEMBER TEST FACILITY
AMOUNT 	51.00
BATCH 	20210217
MID 	10120002
REFERENCE 	te53-760
RECEIPT 	104815031633
TRANTYPE 	PAYMENT
ORDERID 	te53
TIMEOFLASTUPDATE 	2021-02-17T15:36:13.948Z
GATEWAYCODE 	APPROVED
ACQUIRERCODE 	00
TRANID 	760
ORDERSTATUS 	CAPTURED
RESULT 	SUCCESS
TIMEOFRECORD 	2021-02-17T15:36:11.934Z 